<svg width="160" height="52" viewBox="0 0 160 52" fill="none" xmlns="http://www.w3.org/2000/svg">
<g clip-path="url(#clip0_1509_57)">
<path d="M111.332 4.99524L111.417 5.0275L111.509 5.0275L138.868 5.0275L147.5 9.92733L147.5 46.1989L141.433 51.8464L89.3788 51.8477L33.4397 51.8464L23.1296 51.8464L12.5 46.1181L12.5 10.8611L23.1316 5.02751L51.2664 5.02751L51.3627 5.02751L51.4521 4.99175L61.8129 0.847653L100.352 0.847649L111.332 4.99524Z" fill="white" stroke="black"/>
<path d="M96.4211 16.6091H96.6718L96.8218 16.4081L102.723 8.5H154.734L157.113 10.9815L159.5 13.4719V44.3786L154.76 48.5H102.472H95.5H66.7359H58.9474H8.12826L0.5 44.3106V13.5312L4.90423 10.4468L8.13886 8.5H58.7127L65.2996 16.4286L65.4496 16.6091H65.6842H96.4211Z" fill="#595959" stroke="black"/>
<path d="M74.0636 6.24475C73.9005 7.03427 73.9397 7.87328 74.175 8.67452C74.227 8.85385 74.3771 9.23991 74.4616 9.41103C74.9629 10.4394 75.751 11.253 76.7739 11.7984C76.9212 11.8765 77.2766 12.0342 77.4338 12.0913C78.3926 12.4371 79.4257 12.5114 80.4039 12.3047C80.7934 12.222 81.2315 12.0695 81.5882 11.8907C82.4951 11.4381 83.2263 10.6236 83.5384 9.7193C83.7413 9.13223 83.7692 8.5264 83.6218 7.9411C83.5788 7.7736 83.4664 7.46818 83.3925 7.32236C83.0374 6.61738 82.4563 6.09805 81.7012 5.80917C81.1364 5.5929 80.5638 5.54813 80.0088 5.67822C79.8963 5.70497 79.6311 5.78975 79.5307 5.83267C79.0744 6.02622 78.7104 6.35312 78.498 6.7601C78.3266 7.08895 78.2703 7.45413 78.3375 7.8024C78.392 8.08013 78.4897 8.2817 78.69 8.52883C78.7404 8.5915 78.7966 8.66167 78.8141 8.68414C78.8583 8.74012 78.9638 8.84201 79.0257 8.88911C79.1167 8.95898 79.1779 8.99498 79.3188 9.06046C79.4834 9.13645 79.532 9.17573 79.5539 9.24539C79.5651 9.2818 79.5635 9.29094 79.5433 9.32128C79.5163 9.36238 79.4482 9.41177 79.3737 9.44653C79.2454 9.50555 78.985 9.52561 78.7679 9.49411C78.3763 9.4363 78.0204 9.27541 77.7111 9.0153C77.4076 8.76071 77.1852 8.43598 77.036 8.03166C76.8945 7.64751 76.8524 7.25141 76.9085 6.83504C77.0121 6.06626 77.4917 5.30025 78.1947 4.77881C78.5115 4.54397 79.0147 4.3024 79.4773 4.16277C79.9875 4.00885 80.4372 3.95584 81.0095 3.98276C81.4733 4.00384 81.8482 4.07488 82.348 4.23575C82.5051 4.28681 82.997 4.50806 83.1576 4.59997C83.5761 4.84169 83.7989 4.99854 84.112 5.27608C84.5805 5.6904 84.929 6.13987 85.189 6.66707C85.277 6.84372 85.442 7.27172 85.501 7.4748C85.7866 8.45856 85.743 9.53797 85.3783 10.5014C85.2996 10.7112 85.2352 10.8527 85.1189 11.0743C84.9634 11.3709 84.8278 11.5839 84.6415 11.8236C84.595 11.8835 84.5577 11.9338 84.5582 11.937C84.5619 11.9445 84.7298 11.7419 84.8301 11.6105C84.8766 11.5486 84.9692 11.4216 85.0338 11.3274C85.1439 11.1689 85.159 11.1422 85.2721 10.9162C85.3376 10.7831 85.4108 10.625 85.4335 10.5653C85.4763 10.4506 85.4883 10.4215 85.4916 10.4298C85.493 10.4354 85.4143 10.6432 85.3708 10.7467C85.3211 10.8662 85.3471 10.8188 85.4341 10.6343C85.5065 10.4797 85.5379 10.3993 85.6045 10.1939C85.6114 10.1725 85.6189 10.1581 85.6199 10.1625C85.6221 10.1664 85.6047 10.2285 85.5815 10.3017C85.5578 10.3737 85.5404 10.4358 85.5409 10.4389C85.5454 10.4488 85.6251 10.268 85.653 10.186C85.6686 10.1418 85.6946 10.0777 85.7118 10.045C85.7289 10.0123 85.7507 9.95222 85.7612 9.91165C85.7712 9.87188 85.7823 9.84043 85.7867 9.84238C85.7902 9.84394 85.7895 9.85347 85.7854 9.86343C85.7771 9.88135 85.7771 9.88135 85.7941 9.86534C85.8035 9.85573 85.8187 9.83497 85.8279 9.81941C85.8372 9.80386 85.8499 9.78986 85.8569 9.78901C85.8634 9.78895 85.8727 9.77736 85.8776 9.76383C85.8903 9.72523 85.8951 9.74701 85.8897 9.81929C85.8865 9.85622 85.8863 9.88559 85.888 9.88439C85.8902 9.88437 85.8986 9.85175 85.9069 9.81319C85.9153 9.77462 85.9246 9.7424 85.9272 9.74159C85.9302 9.73997 85.9249 9.77692 85.9154 9.82185C85.9059 9.86677 85.9009 9.90094 85.9052 9.89694C85.9082 9.89334 85.9247 9.83288 85.9402 9.76211C86.0865 9.10369 86.0793 8.39974 85.9205 7.68556C85.6928 6.66559 85.2816 5.91505 84.5428 5.17441C84.1552 4.7852 83.7587 4.48734 83.2865 4.2306C83.1326 4.14658 82.6315 3.92421 82.4747 3.87037C81.983 3.70031 81.588 3.62229 81.0351 3.58331C80.7268 3.5625 80.5065 3.56595 80.1429 3.59918C79.7667 3.63371 79.4577 3.69704 79.1296 3.80696C78.3603 4.06506 77.7286 4.46288 77.2385 4.99721C77.0353 5.21958 76.8794 5.43639 76.7268 5.70872C76.3467 6.38817 76.2118 7.07229 76.3223 7.76505C76.4499 8.57156 76.871 9.27837 77.511 9.76188C77.7226 9.92161 77.8172 9.97638 78.1111 10.1068C78.4025 10.2361 78.5167 10.2741 78.7708 10.3239C79.5417 10.4773 80.315 10.3311 80.8943 9.92379C81.1441 9.74865 81.3222 9.55547 81.4678 9.30065C81.6201 9.03506 81.6908 8.7785 81.6909 8.48959C81.6909 8.23799 81.6399 8.02174 81.5223 7.77986C81.4923 7.71741 81.4703 7.66442 81.4741 7.66121C81.4771 7.65761 81.4753 7.65485 81.4697 7.65529C81.464 7.65574 81.4333 7.61949 81.4014 7.57293C81.2643 7.37447 81.0966 7.23223 80.7 6.97564C80.5907 6.90553 80.4933 6.83968 80.4822 6.82787C80.456 6.8015 80.4427 6.75042 80.4514 6.70709C80.4577 6.67648 80.4649 6.66491 80.5007 6.63365C80.5763 6.56793 80.6702 6.52507 80.7686 6.51075C81.1105 6.46103 81.5471 6.52996 81.8441 6.68143C82.088 6.80637 82.2908 6.9622 82.4901 7.18037C82.8629 7.58955 83.075 8.08859 83.1063 8.6332C83.1339 9.10442 83.0577 9.47454 82.8256 9.99756C82.7574 10.1501 82.655 10.3268 82.546 10.4769C82.2 10.9573 81.6481 11.3846 81.0255 11.6557C80.5292 11.8718 80.0113 11.9909 79.4542 12.0178C78.5877 12.0589 77.642 11.8407 76.8498 11.4144C76.1411 11.0331 75.5753 10.5215 75.11 9.8413C74.797 9.38399 74.5323 8.75841 74.417 8.20697C74.3808 8.03663 74.3434 7.76351 74.3316 7.59416C74.2839 6.9096 74.3698 6.25288 74.5908 5.61089C74.6777 5.35855 74.747 5.19962 74.8946 4.92018C75.0456 4.63238 75.1389 4.48119 75.3089 4.24997C75.3609 4.17969 75.4031 4.1198 75.4022 4.11743C75.4013 4.11506 75.3694 4.15104 75.3317 4.19819C75.2944 4.24454 75.2304 4.32326 75.1893 4.37282C75.149 4.42276 75.0519 4.55851 74.9726 4.67467C74.8444 4.86544 74.8133 4.9165 74.6685 5.18838C74.5334 5.44192 74.4996 5.51046 74.4618 5.61555C74.4362 5.68482 74.4127 5.74216 74.4088 5.74339C74.4053 5.74381 74.4101 5.72234 74.4199 5.69527C74.4347 5.65268 74.4355 5.64911 74.4194 5.6675C74.4028 5.68669 74.3854 5.72612 74.3079 5.91092C74.2988 5.93242 74.2873 5.96268 74.2824 5.9782C74.2759 6.00087 74.2742 6.00208 74.2738 5.98621C74.2731 5.95248 74.2365 6.05319 74.2113 6.15699C74.1878 6.25759 74.175 6.29024 74.1833 6.23104C74.1924 6.16627 74.1793 6.20567 74.1477 6.33809C74.1118 6.49118 74.0827 6.66207 74.0656 6.82254C74.0587 6.88729 74.0515 6.94013 74.0489 6.94095C74.0343 6.94623 74.0887 6.53305 74.1271 6.35057C74.1504 6.24004 74.1526 6.21741 74.1389 6.20839C74.131 6.20291 74.1224 6.18631 74.1207 6.17085C74.1179 6.13912 74.0991 6.09245 74.0941 6.104C74.0921 6.10799 74.0782 6.1716 74.0636 6.24475ZM74.2762 6.01476C74.2776 6.01832 74.2747 6.02589 74.2691 6.0303C74.2631 6.03551 74.2618 6.03195 74.2664 6.02318C74.2701 6.01402 74.2752 6.0104 74.2762 6.01476ZM74.2682 6.05055C74.2696 6.05411 74.2667 6.06167 74.2612 6.06608C74.2552 6.07129 74.2538 6.06773 74.2584 6.05896C74.2621 6.0498 74.2673 6.04619 74.2682 6.05055ZM74.2603 6.08633C74.2617 6.08989 74.2588 6.09745 74.2532 6.10187C74.2472 6.10708 74.2459 6.10352 74.2505 6.09475C74.2542 6.08559 74.2593 6.08197 74.2603 6.08633ZM74.2523 6.12211C74.2537 6.12567 74.2508 6.13324 74.2453 6.13765C74.2393 6.14286 74.2379 6.1393 74.2425 6.13053C74.2462 6.12137 74.2514 6.11776 74.2523 6.12211ZM74.2429 6.16902C74.2427 6.17974 74.2395 6.19405 74.2361 6.20043C74.2324 6.2076 74.2293 6.20525 74.2303 6.19294C74.2305 6.18222 74.2337 6.16791 74.2371 6.16153C74.2408 6.15435 74.2439 6.15671 74.2429 6.16902ZM74.2327 6.22149C74.234 6.22505 74.2311 6.23262 74.2256 6.23703C74.2196 6.24224 74.2182 6.23868 74.2228 6.22991C74.2266 6.22075 74.2317 6.21713 74.2327 6.22149ZM74.2232 6.2684C74.223 6.27912 74.2198 6.29343 74.2165 6.29981C74.2127 6.30698 74.2096 6.30463 74.2107 6.29232C74.2109 6.2816 74.214 6.26729 74.2174 6.26091C74.2212 6.25373 74.2242 6.25609 74.2232 6.2684ZM74.1901 6.4552C74.1912 6.46352 74.191 6.47424 74.1885 6.47902C74.1864 6.48301 74.1828 6.47947 74.1818 6.47114C74.1807 6.46282 74.1814 6.4513 74.1834 6.44732C74.186 6.44254 74.1891 6.44687 74.1901 6.4552ZM74.1826 6.51082C74.1836 6.51915 74.1834 6.52986 74.1809 6.53465C74.1788 6.53863 74.1753 6.53509 74.1742 6.52677C74.1732 6.51844 74.1738 6.50693 74.1759 6.50294C74.1784 6.49816 74.1815 6.5025 74.1826 6.51082ZM74.1751 6.56644C74.1761 6.57477 74.1759 6.58549 74.1734 6.59027C74.1713 6.59426 74.1677 6.59071 74.1667 6.58239C74.1656 6.57406 74.1663 6.56255 74.1684 6.55856C74.1709 6.55378 74.174 6.55812 74.1751 6.56644ZM74.1675 6.62207C74.1686 6.63039 74.1683 6.64111 74.1658 6.64589C74.1637 6.64988 74.1602 6.64634 74.1592 6.63801C74.1581 6.62969 74.1587 6.61817 74.1608 6.61419C74.1633 6.6094 74.1665 6.61374 74.1675 6.62207ZM74.0529 6.96433C74.054 6.97265 74.0537 6.98337 74.0512 6.98815C74.0491 6.99214 74.0456 6.9886 74.0445 6.98027C74.0435 6.97195 74.0441 6.96043 74.0462 6.95645C74.0487 6.95166 74.0519 6.956 74.0529 6.96433ZM74.3304 6.42901C74.3297 6.43656 74.3194 6.52435 74.3084 6.62366C74.2337 7.2775 74.2757 7.87401 74.4407 8.48972C74.4572 8.55308 74.4687 8.60338 74.466 8.60221C74.4555 8.59754 74.3768 8.30414 74.3438 8.14012C74.2446 7.65482 74.2282 7.09222 74.2985 6.58683C74.3099 6.50538 74.3218 6.43305 74.3252 6.42668C74.3315 6.4167 74.3315 6.4167 74.3304 6.42901ZM74.0468 7.08939C74.048 7.10366 74.047 7.11796 74.0445 7.12274C74.0424 7.12673 74.0396 7.11961 74.0385 7.10533C74.0373 7.09105 74.0387 7.07596 74.0408 7.07198C74.0433 7.06719 74.0456 7.07511 74.0468 7.08939ZM74.0112 7.32026C74.0149 7.33174 74.0148 7.42897 74.0104 7.42702C74.0051 7.42468 74.001 7.33344 74.0056 7.32269C74.0077 7.3187 74.0103 7.31788 74.0112 7.32026ZM74.0171 7.5234C74.019 7.53013 74.0262 7.6011 74.0331 7.6828C74.0896 8.37522 74.3205 9.10863 74.6805 9.73817C74.805 9.95658 75.0091 10.2584 75.1272 10.3983C75.1499 10.4251 75.1674 10.4496 75.1666 10.4512C75.1594 10.4647 74.9458 10.1812 74.8295 10.0048C74.3653 9.29954 74.0826 8.47529 74.0196 7.64243C74.0111 7.52464 74.0106 7.50083 74.0171 7.5234ZM74.0738 7.75984C74.0756 7.76062 74.0775 7.77131 74.0778 7.78322C74.0782 7.80504 74.0773 7.80465 74.0726 7.78485C74.0664 7.76149 74.0668 7.75672 74.0738 7.75984ZM74.0842 7.84309C74.086 7.84387 74.0879 7.85456 74.0882 7.86647C74.0886 7.88829 74.0878 7.8879 74.083 7.8681C74.0769 7.84474 74.0772 7.83997 74.0842 7.84309ZM74.0946 7.92634C74.0964 7.92712 74.1052 7.97228 74.1141 8.02539C74.165 8.34283 74.2608 8.68213 74.4094 9.07732C74.517 9.36096 74.6059 9.55863 74.6878 9.69327C74.8738 10.0008 75.1763 10.3975 75.4359 10.6739C75.4822 10.7239 75.5191 10.7649 75.5165 10.7657C75.5087 10.7681 75.3153 10.5614 75.2182 10.4476C74.9397 10.1185 74.7046 9.76853 74.5349 9.42787C74.4656 9.28996 74.3301 8.9645 74.3405 8.96123C74.3439 8.96081 74.3257 8.89667 74.3001 8.8195C74.2199 8.5785 74.1663 8.36306 74.1118 8.06271C74.087 7.93275 74.0859 7.92244 74.0946 7.92634ZM74.2847 8.32516C74.2864 8.32593 74.2996 8.37305 74.3146 8.42888C74.3848 8.71164 74.5167 9.07285 74.6444 9.33885C74.6812 9.41711 74.7117 9.48273 74.7104 9.48513C74.7092 9.48752 74.7043 9.48042 74.6988 9.47014C74.6943 9.46026 74.6671 9.40692 74.6399 9.35159C74.5033 9.07772 74.3965 8.79051 74.318 8.48441C74.2792 8.33354 74.2768 8.32165 74.2847 8.32516ZM74.4864 8.66038C74.4881 8.66116 74.4959 8.68133 74.5042 8.70467L74.5182 8.74821L74.4991 8.70631C74.483 8.66676 74.4794 8.65726 74.4864 8.66038ZM74.7754 9.38814C74.7771 9.38892 74.7817 9.40079 74.7864 9.41464L74.7934 9.44037L74.7812 9.41627C74.7703 9.39374 74.7684 9.38503 74.7754 9.38814ZM74.8365 9.58923C75.0007 9.87635 75.2018 10.1592 75.419 10.403C75.5125 10.5094 75.7116 10.7176 75.7559 10.7569C75.7718 10.7699 75.7816 10.7821 75.779 10.7829C75.7622 10.7882 75.517 10.5359 75.3601 10.3503C75.2046 10.1683 75.1057 10.035 74.9759 9.83489C74.887 9.69912 74.7585 9.47599 74.7635 9.46642C74.7644 9.46483 74.7972 9.51971 74.8365 9.58923ZM74.8577 9.54262C74.8595 9.54339 74.8631 9.55289 74.8655 9.56279C74.8702 9.58061 74.8689 9.58101 74.8603 9.56442C74.8517 9.54782 74.8507 9.5395 74.8577 9.54262ZM74.8857 9.59437C74.8902 9.60226 74.8999 9.60853 74.9078 9.60807C74.9156 9.60761 74.9182 9.60878 74.9126 9.6112C74.9074 9.61283 74.9046 9.62238 74.907 9.63228C74.9089 9.641 74.9022 9.6351 74.8919 9.61773C74.882 9.60154 74.8742 9.58534 74.8755 9.58294C74.8768 9.58055 74.8816 9.58567 74.8857 9.59437ZM77.2366 5.17621C77.2379 5.17977 77.2351 5.18733 77.2295 5.19175C77.2235 5.19696 77.2221 5.1934 77.2267 5.18463C77.2305 5.17547 77.2356 5.17185 77.2366 5.17621ZM77.3559 5.03948C77.5005 4.88547 77.8077 4.60905 77.8483 4.59561C77.8548 4.59357 77.8173 4.62802 77.7643 4.67132C77.6424 4.77156 77.4634 4.93975 77.3626 5.04736C77.2894 5.12497 77.2681 5.14499 77.2777 5.12665C77.2798 5.12267 77.3155 5.08347 77.3559 5.03948ZM74.9208 9.64923C74.9225 9.65001 74.9262 9.6595 74.9286 9.66941C74.9333 9.68722 74.932 9.68763 74.9234 9.67104C74.9148 9.65444 74.9138 9.64612 74.9208 9.64923ZM74.9715 9.70714C74.9729 9.7107 74.9722 9.71825 74.9701 9.72223C74.9676 9.72702 74.9699 9.73493 74.9757 9.74044C74.9824 9.74634 74.9854 9.74472 74.9847 9.7356C74.9837 9.72728 74.9858 9.72527 74.9881 9.73121C74.9904 9.73714 74.9902 9.74587 74.9881 9.74986C74.9856 9.75464 74.9879 9.76256 74.9937 9.76807C75.0003 9.77397 75.0033 9.77235 75.0027 9.76323C75.0017 9.75491 75.0038 9.7529 75.0061 9.75884C75.0084 9.76477 75.009 9.77191 75.0077 9.7743C75.006 9.77749 75.0058 9.78622 75.0068 9.79455C75.0079 9.80287 74.9972 9.79026 74.9824 9.76697C74.9684 9.74407 74.9588 9.71915 74.9621 9.71278C74.9659 9.7056 74.9702 9.70358 74.9715 9.70714ZM77.7496 4.74248C77.7574 4.73805 77.763 4.73761 77.7605 4.74239C77.7584 4.74638 77.749 4.754 77.7413 4.75843C77.7336 4.76286 77.7283 4.76251 77.7304 4.75852C77.7329 4.75374 77.7419 4.74691 77.7496 4.74248ZM77.7881 4.71041C77.7958 4.70598 77.8015 4.70553 77.799 4.71032C77.7969 4.7143 77.7875 4.72192 77.7797 4.72635C77.772 4.73079 77.7668 4.73043 77.7689 4.72645C77.7714 4.72166 77.7804 4.71484 77.7881 4.71041ZM77.8266 4.67834C77.8343 4.67391 77.8399 4.67346 77.8374 4.67825C77.8353 4.68223 77.8259 4.68985 77.8182 4.69428C77.8105 4.69871 77.8052 4.69836 77.8073 4.69437C77.8098 4.68959 77.8188 4.68277 77.8266 4.67834ZM77.9597 4.57721C78.0744 4.4925 78.3155 4.33609 78.3568 4.31907C78.3779 4.30977 78.3779 4.30977 78.3565 4.32384C78.2235 4.40632 78.0566 4.51607 77.9607 4.58553C77.896 4.63251 77.8437 4.66827 77.8454 4.66508C77.8462 4.6615 77.8984 4.62177 77.9597 4.57721ZM78.0714 4.32506C78.074 4.32622 78.0603 4.33785 78.0415 4.3511C78.0226 4.36436 78.0046 4.37404 78.0028 4.37326C78.0002 4.37209 78.0138 4.36046 78.0327 4.34721C78.0515 4.33395 78.0696 4.32428 78.0714 4.32506ZM75.1366 9.9514C75.1437 9.96046 75.1487 9.96955 75.1475 9.97194C75.1466 9.97354 75.1396 9.96844 75.1324 9.95937C75.1253 9.9503 75.1203 9.94122 75.1216 9.93882C75.1224 9.93723 75.1295 9.94233 75.1366 9.9514ZM78.3848 4.13986C78.4872 4.08502 78.6305 4.01396 78.7041 3.98278C78.8248 3.93017 79.1958 3.79211 79.2045 3.79601C79.2151 3.80068 79.1927 3.81039 79.0813 3.84745C78.7821 3.94958 78.4566 4.09996 78.1853 4.26258C78.0796 4.32578 78.0542 4.33512 78.1378 4.28084C78.1726 4.25793 78.2834 4.19508 78.3848 4.13986ZM77.7073 5.11191C77.718 5.10388 77.7215 5.10346 77.7173 5.11143C77.714 5.11781 77.7046 5.12741 77.6969 5.13184C77.6788 5.14152 77.6855 5.12876 77.7073 5.11191ZM75.1679 9.99479C75.1751 10.0039 75.18 10.0129 75.1788 10.0153C75.178 10.0169 75.1709 10.0118 75.1638 10.0028C75.1566 9.99369 75.1516 9.98461 75.1529 9.98221C75.1537 9.98062 75.1608 9.98572 75.1679 9.99479ZM77.8411 4.9826C77.9342 4.89808 78.1573 4.71801 78.1768 4.71189C78.1833 4.70985 78.1427 4.74392 78.0854 4.78925C78.0285 4.83378 77.9293 4.91756 77.8645 4.97526C77.7996 5.03295 77.7488 5.07624 77.7508 5.07027C77.7533 5.06549 77.7947 5.02585 77.8411 4.9826ZM75.2573 10.1131C75.272 10.1304 75.2828 10.147 75.282 10.1486C75.2807 10.151 75.2679 10.1384 75.2532 10.1211C75.2384 10.1037 75.2277 10.0871 75.2285 10.0855C75.2298 10.0832 75.2426 10.0957 75.2573 10.1131ZM75.3288 10.2038C75.3359 10.2128 75.3409 10.2219 75.3396 10.2243C75.3388 10.2259 75.3317 10.2208 75.3246 10.2117C75.3175 10.2027 75.3125 10.1936 75.3137 10.1912C75.3146 10.1896 75.3216 10.1947 75.3288 10.2038ZM78.4492 4.2667C78.451 4.26748 78.4455 4.27388 78.4356 4.28031C78.4257 4.28674 78.4158 4.29119 78.4132 4.29002C78.4114 4.28924 78.4169 4.28285 78.4268 4.27642C78.4367 4.26998 78.4466 4.26553 78.4492 4.2667ZM75.4326 10.3255C75.4455 10.3401 75.454 10.3527 75.451 10.3543C75.445 10.3556 75.404 10.3079 75.4069 10.3023C75.4082 10.2999 75.4197 10.3109 75.4326 10.3255ZM78.7289 4.25124C78.7861 4.22457 78.8378 4.2023 78.8439 4.20106C78.8495 4.20062 78.7949 4.22846 78.7226 4.2632C78.5431 4.34766 78.5172 4.35978 78.5744 4.32716C78.6019 4.31184 78.6716 4.27792 78.7289 4.25124ZM76.6092 8.05947C76.611 8.06025 76.6146 8.06974 76.617 8.07964C76.6217 8.09746 76.6205 8.09787 76.6118 8.08128C76.6032 8.06468 76.6022 8.05636 76.6092 8.05947ZM76.6363 8.15012C76.6381 8.1509 76.6441 8.16831 76.6519 8.18848L76.6635 8.22609L76.6467 8.19012C76.6321 8.15611 76.6293 8.14701 76.6363 8.15012ZM76.6785 8.25731C76.6803 8.25809 76.684 8.26758 76.6863 8.27748C76.6911 8.2953 76.6898 8.29571 76.6812 8.27912C76.6726 8.26252 76.6715 8.2542 76.6785 8.25731ZM78.978 4.14755C78.9806 4.14871 78.9565 4.15963 78.9246 4.173C78.8931 4.18557 78.8651 4.19572 78.8624 4.19456C78.8598 4.19339 78.8843 4.18167 78.9158 4.1691C78.9477 4.15574 78.9753 4.14638 78.978 4.14755ZM76.7473 8.42936C76.7661 8.47405 76.8061 8.55665 76.8364 8.61433C76.8961 8.72535 76.9152 8.76725 76.8778 8.70447C76.8179 8.60417 76.7043 8.36504 76.7105 8.35308C76.7118 8.35069 76.7282 8.38547 76.7473 8.42936ZM79.3226 3.76485C79.3364 3.76116 79.3468 3.75988 79.3456 3.76227C79.3443 3.76466 79.3322 3.76913 79.3184 3.77282C79.3046 3.77651 79.2941 3.77779 79.2954 3.7754C79.2967 3.773 79.3087 3.76854 79.3226 3.76485ZM77.0392 8.28958C77.0409 8.29036 77.0455 8.30223 77.0501 8.31608L77.0572 8.34182L77.045 8.31771C77.0341 8.29518 77.0321 8.28647 77.0392 8.28958ZM75.898 11.0057C75.9715 11.0698 76.0502 11.1362 76.0728 11.1531C76.0953 11.17 76.1112 11.1849 76.1073 11.1861C76.097 11.1894 75.8851 11.0158 75.7942 10.9292C75.714 10.8533 75.7696 10.8937 75.898 11.0057ZM75.8308 10.8285C75.8434 10.8459 75.8373 10.8451 75.8182 10.8278C75.812 10.8211 75.8097 10.8152 75.8131 10.8148C75.8162 10.8132 75.8246 10.8198 75.8308 10.8285ZM76.9621 8.82638C77.0137 8.90531 77.0412 8.9539 77.0171 8.92354C76.9952 8.89515 76.9031 8.7491 76.9052 8.74511C76.906 8.74352 76.9324 8.7798 76.9621 8.82638ZM77.0634 8.97355C77.1009 9.02363 77.1119 9.04815 77.0798 9.01032C77.0504 8.97564 77.0288 8.94249 77.0313 8.93771C77.0326 8.93532 77.0468 8.95147 77.0634 8.97355ZM77.179 9.1202C77.2169 9.16552 77.2468 9.20336 77.2442 9.20418C77.2382 9.20542 77.1036 9.04742 77.1065 9.04184C77.1078 9.03945 77.1398 9.07529 77.179 9.1202ZM76.1368 11.2041C76.1426 11.2096 76.1387 11.2109 76.1291 11.2066C76.119 11.2031 76.115 11.1984 76.1198 11.1975C76.1236 11.1963 76.132 11.199 76.1368 11.2041ZM80.2166 3.73507C80.6049 3.69806 81.0376 3.70433 81.4111 3.75316C81.555 3.77179 81.8343 3.823 81.8584 3.8347C81.8663 3.83821 81.8158 3.83149 81.7455 3.81899C81.221 3.72381 80.7602 3.70111 80.235 3.74325C80.166 3.74899 80.0949 3.75475 80.077 3.7557L80.0454 3.75835L80.0757 3.75214C80.0917 3.74843 80.1554 3.74035 80.2166 3.73507ZM76.1678 11.2277C76.1735 11.2332 76.1696 11.2344 76.16 11.2301C76.1499 11.2266 76.1459 11.2219 76.1507 11.2211C76.1546 11.2199 76.1629 11.2226 76.1678 11.2277ZM77.2957 9.25256C77.3055 9.26478 77.3113 9.27425 77.3074 9.27349C77.2969 9.26882 77.2661 9.23257 77.2713 9.23094C77.2743 9.22932 77.2854 9.23915 77.2957 9.25256ZM77.4716 9.08003C77.5356 9.14576 77.641 9.23972 77.7404 9.31825C77.7847 9.35359 77.8143 9.37954 77.8064 9.37603C77.7849 9.36748 77.6094 9.2257 77.5451 9.16473C77.4639 9.08644 77.4128 9.0333 77.4184 9.03087C77.421 9.03006 77.445 9.05248 77.4716 9.08003ZM77.3379 9.29586C77.3504 9.31321 77.3443 9.31247 77.3252 9.29517C77.319 9.28848 77.3167 9.28254 77.3202 9.28212C77.3232 9.2805 77.3316 9.28718 77.3379 9.29586ZM78.6592 6.73532C78.6488 6.75922 78.6284 6.79829 78.6132 6.82302C78.5981 6.84775 78.6072 6.82823 78.6323 6.7804C78.6578 6.73176 78.6696 6.71143 78.6592 6.73532ZM78.5753 6.92216C78.5288 7.04795 78.5213 7.06429 78.5215 7.05556C78.522 7.03611 78.552 6.95013 78.5733 6.91146L78.5942 6.8716L78.5753 6.92216ZM78.5229 7.07777C78.5217 7.08413 78.5167 7.09369 78.5124 7.0977C78.5069 7.10211 78.5072 7.09735 78.5131 7.08618C78.5189 7.07502 78.5228 7.07182 78.5229 7.07777ZM77.3734 9.33127C77.3859 9.34863 77.3798 9.34789 77.3608 9.33059C77.3545 9.32389 77.3522 9.31796 77.3557 9.31753C77.3587 9.31592 77.3671 9.32259 77.3734 9.33127ZM77.4532 9.406C77.4657 9.42336 77.4596 9.42261 77.4406 9.40531C77.4343 9.39862 77.432 9.39269 77.4355 9.39226C77.4385 9.39065 77.4469 9.39732 77.4532 9.406ZM77.6598 9.4741C77.7039 9.50746 77.7816 9.56157 77.8314 9.59448C77.9151 9.64934 77.9613 9.67673 78.194 9.80453C78.2722 9.84713 78.2696 9.84596 78.1528 9.79019C78.0219 9.72622 77.8789 9.64409 77.7788 9.57509C77.7021 9.52137 77.5686 9.41693 77.5742 9.4145C77.5768 9.41369 77.6156 9.44074 77.6598 9.4741ZM80.7588 3.61699C80.7671 3.61772 80.7702 3.62007 80.7651 3.62369C80.7599 3.6273 80.7521 3.62776 80.7469 3.62543C80.7346 3.61998 80.7401 3.61556 80.7588 3.61699ZM76.6391 11.5253C76.6449 11.5308 76.641 11.532 76.6313 11.5278C76.6213 11.5243 76.6173 11.5195 76.622 11.5187C76.6259 11.5175 76.6342 11.5202 76.6391 11.5253ZM80.8215 3.61924C80.8259 3.62119 80.822 3.6244 80.8129 3.62527C80.8038 3.62614 80.7912 3.62545 80.7868 3.6235C80.7815 3.62117 80.7863 3.61835 80.7954 3.61748C80.8045 3.61661 80.8162 3.6169 80.8215 3.61924ZM77.8737 9.41277C77.8922 9.42491 77.905 9.43552 77.9016 9.43594C77.8977 9.43717 77.8805 9.42858 77.862 9.41644C77.8435 9.40429 77.8316 9.39407 77.8342 9.39326C77.8372 9.39164 77.8552 9.40062 77.8737 9.41277ZM80.9602 3.62283C80.9646 3.62478 80.9516 3.62687 80.9304 3.62824C80.9091 3.62961 80.8873 3.62781 80.8829 3.62587C80.8777 3.62353 80.8915 3.62182 80.9128 3.62045C80.9341 3.61908 80.955 3.62049 80.9602 3.62283ZM76.7642 11.689C76.7718 11.6952 76.7656 11.6945 76.7516 11.6883C76.7367 11.6816 76.7314 11.6773 76.7379 11.6773C76.7449 11.6784 76.7572 11.6839 76.7642 11.689ZM77.9482 9.46254C77.9531 9.46765 77.9479 9.4673 77.9356 9.46185C77.9233 9.4564 77.9197 9.45286 77.9263 9.4528C77.9332 9.45393 77.9438 9.45861 77.9482 9.46254ZM81.0342 3.62617C81.0386 3.62812 81.0308 3.63057 81.0152 3.63149C80.9996 3.63242 80.983 3.63097 80.9786 3.62903C80.9734 3.62669 80.982 3.62463 80.9976 3.62371C81.0133 3.62278 81.0289 3.62384 81.0342 3.62617ZM76.9702 11.7912C77.1525 11.8789 77.4151 11.9847 77.63 12.0555C77.7407 12.0918 77.812 12.1127 78.028 12.1731C78.0608 12.1828 78.0608 12.1828 78.0303 12.1791C77.9318 12.1668 77.5205 12.0354 77.2724 11.9371C77.1338 11.8815 76.7936 11.7216 76.7982 11.7129C76.799 11.7113 76.8771 11.7459 76.9702 11.7912ZM78.0011 9.49582C78.0086 9.50211 78.0025 9.50137 77.9884 9.49514C77.9735 9.48851 77.9682 9.48419 77.9747 9.48414C77.9817 9.48527 77.994 9.49072 78.0011 9.49582ZM81.1392 3.6364C81.141 3.64115 81.0601 3.63667 81.05 3.6312C81.0465 3.62964 81.0651 3.62909 81.0908 3.62967C81.1165 3.63024 81.1387 3.63323 81.1392 3.6364ZM77.1071 11.9119C77.2817 11.9894 77.3682 12.0307 77.3134 12.0093C77.1798 11.9589 76.9758 11.8693 76.8839 11.8217C76.8408 11.7986 76.8061 11.7803 76.8065 11.7795C76.807 11.7787 76.9421 11.8386 77.1071 11.9119ZM81.2441 3.64067C81.2937 3.64502 81.3338 3.65103 81.3356 3.65379C81.3365 3.65616 81.3017 3.65447 81.2595 3.65046C81.2163 3.64607 81.1741 3.64206 81.1658 3.64133C81.1584 3.641 81.1523 3.63827 81.1535 3.63588C81.1548 3.63349 81.1957 3.63592 81.2441 3.64067ZM77.0894 11.6465C77.107 11.6563 77.093 11.652 77.0596 11.6372C77.0254 11.6221 77.0122 11.6142 77.028 11.6193C77.0446 11.6247 77.0727 11.6371 77.0894 11.6465ZM77.6124 11.856C77.6728 11.8769 77.7241 11.8967 77.7254 11.9003C77.7268 11.9038 77.7221 11.9047 77.715 11.9016C77.708 11.8985 77.6366 11.8737 77.5561 11.8458C77.4755 11.8179 77.3449 11.7658 77.2654 11.7296L77.1211 11.6645L77.3113 11.7411C77.4157 11.7835 77.5506 11.8355 77.6124 11.856ZM81.3957 3.65884C81.4001 3.66078 81.3967 3.66319 81.3876 3.66407C81.3784 3.66494 81.3645 3.66267 81.3575 3.65956C81.3434 3.65333 81.3786 3.65224 81.3957 3.65884ZM81.4567 3.66626C81.4611 3.66821 81.4577 3.67062 81.4486 3.67149C81.4395 3.67236 81.4255 3.67009 81.4185 3.66698C81.4044 3.66075 81.4396 3.65966 81.4567 3.66626ZM81.5919 3.68694C81.5998 3.69045 81.5973 3.69325 81.5838 3.69217C81.572 3.69187 81.5563 3.68883 81.5493 3.68572C81.5414 3.68221 81.5439 3.67941 81.5574 3.68049C81.5692 3.68079 81.5849 3.68383 81.5919 3.68694ZM78.3742 9.87762C78.3817 9.8839 78.3756 9.88316 78.3615 9.87693C78.3466 9.87031 78.3413 9.86599 78.3478 9.86593C78.3548 9.86706 78.3671 9.87252 78.3742 9.87762ZM77.4763 12.0639C77.4895 12.0717 77.479 12.069 77.4553 12.0585C77.4307 12.0476 77.421 12.0414 77.4324 12.0444C77.4446 12.0479 77.4639 12.0565 77.4763 12.0639ZM81.8205 3.97709C81.8263 3.9826 81.8224 3.98383 81.8128 3.97954C81.8027 3.97606 81.7987 3.97133 81.8034 3.97049C81.8073 3.96927 81.8156 3.97198 81.8205 3.97709ZM81.9004 3.84546C81.9062 3.85097 81.9023 3.85219 81.8926 3.84791C81.8825 3.84442 81.8785 3.83969 81.8833 3.83886C81.8872 3.83763 81.8955 3.84034 81.9004 3.84546ZM77.5901 12.1046C77.5959 12.1101 77.592 12.1113 77.5824 12.1071C77.5723 12.1036 77.5683 12.0989 77.5731 12.098C77.5769 12.0968 77.5853 12.0995 77.5901 12.1046ZM81.8686 3.98859C81.8744 3.9941 81.8705 3.99532 81.8608 3.99104C81.8507 3.98755 81.8467 3.98283 81.8515 3.98199C81.8554 3.98077 81.8637 3.98348 81.8686 3.98859ZM82.0315 4.02452C82.3318 4.10374 82.5648 4.1855 82.8276 4.30512L82.9966 4.38108L82.7958 4.29983C82.5034 4.18086 82.2017 4.07745 81.9797 4.0202C81.894 3.9979 81.8791 3.99327 81.8882 3.99041C81.8912 3.9888 81.9554 4.00453 82.0315 4.02452ZM81.0777 5.71919C81.0865 5.72309 81.0835 5.7247 81.0696 5.72442C81.0409 5.72348 81.0268 5.71724 81.0476 5.71469C81.0568 5.71382 81.0707 5.71608 81.0777 5.71919ZM81.3571 5.77239C81.4352 5.79039 81.5078 5.81081 81.5175 5.81707C81.5263 5.82295 81.4875 5.81455 81.4306 5.79916C81.3729 5.78337 81.276 5.76197 81.2149 5.75058C81.1538 5.73919 81.101 5.72852 81.0979 5.72617C81.0816 5.71599 81.2321 5.7425 81.3571 5.77239ZM82.1645 3.79561C82.1694 3.80072 82.1642 3.80037 82.1519 3.79492C82.1396 3.78947 82.1361 3.78593 82.1426 3.78587C82.1496 3.787 82.1601 3.79167 82.1645 3.79561ZM82.3998 3.86267C82.4729 3.88626 82.6131 3.94064 82.7131 3.98305C82.8131 4.02546 82.864 4.04805 82.8272 4.03367C82.7027 3.98433 82.4622 3.89627 82.3331 3.85371C82.2631 3.83049 82.2018 3.80918 82.196 3.80566C82.1758 3.79472 82.2729 3.82207 82.3998 3.86267ZM78.0962 12.1916C78.102 12.1971 78.0981 12.1984 78.0885 12.1941C78.0784 12.1906 78.0744 12.1859 78.0791 12.185C78.083 12.1838 78.0913 12.1865 78.0962 12.1916ZM78.1355 12.1992C78.1413 12.2047 78.1374 12.206 78.1277 12.2017C78.1177 12.1982 78.1137 12.1935 78.1184 12.1926C78.1223 12.1914 78.1306 12.1941 78.1355 12.1992ZM78.1923 12.2146C78.1981 12.2201 78.1942 12.2213 78.1846 12.2171C78.1745 12.2136 78.1705 12.2089 78.1753 12.208C78.1791 12.2068 78.1875 12.2095 78.1923 12.2146ZM81.6117 5.85001C81.6192 5.8563 81.6131 5.85555 81.5991 5.84932C81.5841 5.8427 81.5788 5.83838 81.5853 5.83833C81.5923 5.83946 81.6046 5.84491 81.6117 5.85001ZM81.9135 6.15105C81.9535 6.16976 81.9202 6.15695 81.8403 6.12151C81.7605 6.08607 81.7288 6.07007 81.7687 6.08679C81.81 6.10311 81.8749 6.13193 81.9135 6.15105ZM82.0629 6.22718C82.0761 6.235 82.0639 6.23153 82.0376 6.21985C82.0112 6.20817 82.0007 6.20151 82.0147 6.20576C82.0295 6.21039 82.0506 6.21974 82.0629 6.22718ZM83.0907 4.43267C83.1083 4.44244 83.0925 4.43741 83.0565 4.42144C83.0206 4.40548 83.0065 4.39726 83.0249 4.40346C83.0441 4.41004 83.074 4.42328 83.0907 4.43267ZM82.1333 6.26825C82.1439 6.27491 82.1361 6.27339 82.1167 6.26482C82.097 6.25705 82.0891 6.25156 82.0982 6.25267C82.1078 6.25497 82.1236 6.26198 82.1333 6.26825ZM82.195 6.30543C82.2025 6.31172 82.1946 6.3102 82.178 6.3028C82.1613 6.2954 82.1551 6.29069 82.1643 6.2918C82.1739 6.2941 82.1879 6.30033 82.195 6.30543ZM82.2434 6.33677C82.251 6.34306 82.2449 6.34231 82.2308 6.33608C82.2159 6.32946 82.2106 6.32514 82.2171 6.32509C82.2241 6.32622 82.2364 6.33167 82.2434 6.33677ZM82.2875 6.36616C82.2924 6.37128 82.2872 6.37093 82.2749 6.36547C82.2626 6.36002 82.2591 6.35648 82.2656 6.35642C82.2726 6.35756 82.2831 6.36223 82.2875 6.36616ZM82.3272 6.3936C82.3321 6.39872 82.3269 6.39837 82.3146 6.39292C82.3023 6.38747 82.2988 6.38392 82.3053 6.38387C82.3123 6.385 82.3228 6.38967 82.3272 6.3936ZM82.3581 6.41715C82.3639 6.42266 82.36 6.42388 82.3504 6.4196C82.3403 6.41611 82.3363 6.41139 82.341 6.41055C82.3449 6.40933 82.3533 6.41204 82.3581 6.41715ZM79.4431 12.0739C79.4727 12.0732 79.4966 12.075 79.4954 12.0774C79.4945 12.079 79.4685 12.0812 79.439 12.0819C79.4085 12.0821 79.3855 12.0807 79.3867 12.0783C79.3876 12.0767 79.4127 12.0741 79.4431 12.0739ZM82.3891 6.4407C82.3948 6.44621 82.3909 6.44744 82.3813 6.44315C82.3712 6.43966 82.3672 6.43494 82.372 6.4341C82.3759 6.43288 82.3842 6.43559 82.3891 6.4407ZM82.42 6.46425C82.4257 6.46976 82.4219 6.47098 82.4122 6.4667C82.4021 6.46321 82.3981 6.45849 82.4029 6.45765C82.4068 6.45643 82.4151 6.45914 82.42 6.46425ZM79.5625 12.0669C79.5925 12.0655 79.6285 12.0628 79.6442 12.0619L79.672 12.0604L79.6451 12.0662C79.6122 12.0733 79.505 12.0797 79.5075 12.0749C79.5088 12.0725 79.5335 12.0688 79.5625 12.0669ZM82.5261 6.55066C82.5319 6.55617 82.528 6.5574 82.5183 6.55311C82.5083 6.54962 82.5043 6.5449 82.509 6.54406C82.5129 6.54284 82.5212 6.54555 82.5261 6.55066ZM83.5192 4.76042C83.5249 4.76592 83.5211 4.76715 83.5114 4.76286C83.5013 4.75938 83.4973 4.75465 83.5021 4.75381C83.506 4.75259 83.5143 4.7553 83.5192 4.76042ZM79.7409 12.0527L79.7627 12.0525L79.7384 12.0575C79.725 12.0604 79.7042 12.063 79.6924 12.0627L79.6707 12.0628L79.6949 12.0579C79.7084 12.055 79.7292 12.0524 79.7409 12.0527ZM83.5676 4.79175C83.5725 4.79687 83.5673 4.79652 83.555 4.79107C83.5427 4.78561 83.5392 4.78207 83.5457 4.78202C83.5527 4.78315 83.5632 4.78782 83.5676 4.79175ZM83.7317 4.90585C83.9272 5.04667 84.2405 5.30952 84.2741 5.35884C84.284 5.37503 84.2924 5.3817 84.1644 5.26889C84.0307 5.15056 83.826 4.98601 83.6958 4.89187C83.6309 4.84638 83.585 4.81026 83.592 4.81139C83.5998 4.81291 83.662 4.85525 83.7317 4.90585ZM83.7892 4.57558C83.7941 4.5807 83.7889 4.58035 83.7766 4.5749C83.7643 4.56944 83.7607 4.5659 83.7673 4.56585C83.7742 4.56698 83.7848 4.57165 83.7892 4.57558ZM83.8289 4.60303C83.8338 4.60815 83.8286 4.60779 83.8163 4.60234C83.804 4.59689 83.8004 4.59335 83.807 4.59329C83.8139 4.59442 83.8245 4.5991 83.8289 4.60303ZM83.8779 4.63754C83.895 4.64811 83.9052 4.65754 83.9014 4.65877C83.8988 4.65958 83.8834 4.65178 83.8675 4.6408C83.8503 4.63023 83.8401 4.62079 83.844 4.61957C83.8466 4.61875 83.862 4.62656 83.8779 4.63754ZM84.0316 4.75291C84.0877 4.79649 84.1819 4.87467 84.2416 4.92575C84.3545 5.02401 84.5715 5.2333 84.5633 5.23655C84.5607 5.23736 84.5212 5.20119 84.4764 5.15672C84.3601 5.04222 84.1551 4.8618 84.0239 4.75933C83.962 4.71024 83.9151 4.67175 83.9203 4.6721C83.9255 4.67245 83.9759 4.70854 84.0316 4.75291ZM82.9012 6.94514C82.9115 6.95855 82.92 6.97117 82.9188 6.97357C82.9179 6.97516 82.9073 6.96652 82.897 6.95311C82.8859 6.93932 82.8782 6.92708 82.8795 6.92469C82.8803 6.92309 82.8901 6.93135 82.9012 6.94514ZM83.9797 4.95495C83.9854 4.96046 83.9816 4.96168 83.9719 4.9574C83.9618 4.95391 83.9578 4.94918 83.9626 4.94835C83.9665 4.94713 83.9748 4.94983 83.9797 4.95495ZM84.1194 5.06806C84.6412 5.51289 85.047 6.02815 85.3245 6.59846C85.4012 6.75536 85.5132 7.01832 85.5078 7.02868C85.5057 7.03267 85.4779 6.97219 85.4454 6.89388C85.1756 6.23263 84.7179 5.60788 84.1224 5.08709C84.0498 5.02341 83.9944 4.97229 83.9996 4.97264C84.0035 4.9734 84.0579 5.0162 84.1194 5.06806ZM80.3578 12.1594C80.3773 12.1553 80.3778 12.1565 80.3601 12.1634C80.3498 12.1686 80.3394 12.1719 80.3376 12.1711C80.3306 12.168 80.3384 12.1636 80.3578 12.1594ZM80.6354 12.088C80.9013 12.0143 81.2079 11.8959 81.4604 11.7691C81.5232 11.738 81.5865 11.7062 81.6011 11.6989C81.6269 11.6868 81.6269 11.6868 81.5995 11.7041C81.5416 11.7403 81.3449 11.8368 81.2032 11.8987C81.0506 11.9647 80.5982 12.1137 80.4558 12.1439C80.3727 12.1621 80.383 12.1588 80.6354 12.088ZM84.3175 5.39776C84.3308 5.40955 84.3384 5.41981 84.3358 5.42062C84.3332 5.42144 84.3204 5.41282 84.3072 5.40102C84.2939 5.38923 84.2863 5.37898 84.2889 5.37816C84.2915 5.37734 84.3042 5.38597 84.3175 5.39776ZM84.3655 5.44657C84.378 5.46392 84.3719 5.46318 84.3529 5.44588C84.3466 5.43918 84.3443 5.43325 84.3478 5.43282C84.3508 5.43121 84.3592 5.43789 84.3655 5.44657ZM84.4499 5.53316C84.4624 5.55051 84.4563 5.54977 84.4373 5.53247C84.431 5.52578 84.4287 5.51984 84.4322 5.51942C84.4352 5.51781 84.4436 5.52448 84.4499 5.53316ZM84.5987 5.26998C84.6086 5.2822 84.6144 5.29167 84.6105 5.29091C84.5999 5.28624 84.5692 5.24999 84.5744 5.24836C84.5774 5.24675 84.5885 5.25657 84.5987 5.26998ZM84.4859 5.56976C84.4902 5.57171 84.4979 5.58196 84.5042 5.59263C84.5141 5.6108 84.5132 5.61041 84.4946 5.59231C84.4759 5.57223 84.4727 5.56392 84.4859 5.56976ZM84.661 5.33692C84.6708 5.34914 84.6767 5.35861 84.6727 5.35785C84.6622 5.35318 84.6315 5.31693 84.6366 5.3153C84.6396 5.31368 84.6507 5.32351 84.661 5.33692ZM82.1311 11.198C82.1388 11.1935 82.1444 11.1931 82.1419 11.1979C82.1398 11.2018 82.1304 11.2095 82.1227 11.2139C82.115 11.2183 82.1097 11.218 82.1118 11.214C82.1143 11.2092 82.1233 11.2024 82.1311 11.198ZM82.1926 11.1466C82.202 11.141 82.2017 11.1438 82.1902 11.1554C82.1817 11.1654 82.1671 11.1766 82.1594 11.181C82.15 11.1867 82.1503 11.1839 82.1618 11.1723C82.1703 11.1623 82.1849 11.1511 82.1926 11.1466ZM82.2506 11.0938C82.2583 11.0893 82.264 11.0889 82.2615 11.0937C82.2594 11.0977 82.25 11.1053 82.2423 11.1097C82.2345 11.1141 82.2293 11.1138 82.2314 11.1098C82.2339 11.105 82.2429 11.0982 82.2506 11.0938ZM82.2317 11.336C82.2383 11.3359 82.2375 11.3395 82.2315 11.3447C82.2178 11.3564 82.2104 11.356 82.2163 11.3449C82.2188 11.3401 82.2252 11.3361 82.2317 11.336ZM82.3107 11.2679C82.3185 11.2634 82.3241 11.263 82.3216 11.2678C82.3195 11.2718 82.3101 11.2794 82.3024 11.2838C82.2947 11.2882 82.2894 11.2879 82.2915 11.2839C82.294 11.2791 82.303 11.2723 82.3107 11.2679ZM82.3492 11.2358C82.3569 11.2314 82.3626 11.2309 82.3601 11.2357C82.358 11.2397 82.3486 11.2473 82.3408 11.2517C82.3331 11.2562 82.3279 11.2558 82.33 11.2518C82.3325 11.247 82.3415 11.2402 82.3492 11.2358ZM85.3759 6.77065C85.3777 6.77143 85.3837 6.78884 85.3915 6.80902L85.4031 6.84662L85.3863 6.81065C85.3717 6.77664 85.3689 6.76754 85.3759 6.77065ZM85.3863 6.97574C85.5305 7.30708 85.6597 7.78896 85.7063 8.17033C85.7231 8.30949 85.7248 8.3309 85.7204 8.32895C85.7178 8.32779 85.7128 8.29806 85.7091 8.26198C85.6682 7.88611 85.5722 7.49166 85.4218 7.09568C85.3786 6.98215 85.344 6.8872 85.3444 6.8864C85.3453 6.88481 85.3639 6.92553 85.3863 6.97574ZM85.4746 7.00118C85.5215 7.12223 85.615 7.39764 85.6276 7.45825C85.6365 7.49271 85.6107 7.4203 85.5628 7.2703C85.5382 7.1955 85.4953 7.07522 85.4681 7.00322C85.4397 6.93163 85.4176 6.87071 85.4188 6.86831C85.4196 6.86672 85.4448 6.92603 85.4746 7.00118ZM85.5568 7.06716C85.5586 7.06794 85.5623 7.07743 85.5646 7.08733C85.5694 7.10515 85.5681 7.10556 85.5595 7.08897C85.5509 7.07237 85.5498 7.06405 85.5568 7.06716ZM85.624 7.24438C85.6402 7.29187 85.6672 7.37657 85.6822 7.43239C85.6977 7.48743 85.7007 7.50248 85.6877 7.46529C85.6761 7.42768 85.6491 7.34497 85.6274 7.28126C85.606 7.21675 85.5897 7.16332 85.591 7.16093C85.5922 7.15853 85.6069 7.19651 85.624 7.24438ZM85.639 7.50657C85.6408 7.50735 85.6454 7.51922 85.65 7.53307L85.657 7.55881L85.6448 7.5347C85.6339 7.51217 85.632 7.50346 85.639 7.50657ZM85.7092 7.53773C85.711 7.53851 85.7165 7.55275 85.7225 7.57016L85.7318 7.60183L85.7173 7.57179C85.705 7.54372 85.7022 7.53461 85.7092 7.53773ZM85.7289 7.60542C85.7306 7.6062 85.7343 7.6157 85.7367 7.6256C85.7414 7.64342 85.7401 7.64382 85.7315 7.62723C85.7229 7.61063 85.7219 7.60231 85.7289 7.60542ZM85.7385 7.649C85.7402 7.64978 85.7439 7.65927 85.7463 7.66917C85.751 7.68699 85.7497 7.6874 85.7411 7.6708C85.7325 7.65421 85.7315 7.64588 85.7385 7.649ZM85.8928 7.94255C85.9009 7.97661 85.9329 8.21882 85.9373 8.28268C85.9439 8.3731 85.9323 8.31288 85.9173 8.18046C85.9093 8.10909 85.8984 8.02267 85.892 7.9874C85.882 7.92201 85.8814 7.89622 85.8928 7.94255ZM85.7233 8.34004C85.725 8.34082 85.7275 8.35469 85.7283 8.37175C85.7291 8.40944 85.7212 8.40792 85.7196 8.36984C85.7176 8.3385 85.7171 8.33732 85.7233 8.34004ZM85.7291 8.41143C85.7309 8.41221 85.7339 8.43123 85.7343 8.45305C85.7348 8.47487 85.7334 8.49195 85.7308 8.49078C85.729 8.49 85.7265 8.47217 85.7256 8.45114C85.723 8.4087 85.723 8.4087 85.7291 8.41143ZM85.7381 8.52842C85.7412 8.53276 85.7418 8.54188 85.7393 8.54667C85.7364 8.55225 85.7333 8.54989 85.7318 8.54038C85.7292 8.52056 85.7309 8.51737 85.7381 8.52842ZM85.941 8.35805C85.9428 8.35882 85.9452 8.37269 85.946 8.38975C85.9468 8.42745 85.9389 8.42592 85.9373 8.38784C85.9353 8.35651 85.9349 8.35532 85.941 8.35805ZM85.9473 8.44927C85.949 8.45005 85.9515 8.46392 85.9523 8.48097C85.953 8.51867 85.9452 8.51715 85.9435 8.47906C85.9416 8.44773 85.9411 8.44654 85.9473 8.44927ZM85.7971 9.79785C85.7981 9.80617 85.7958 9.81889 85.7924 9.82527C85.7882 9.83324 85.7864 9.83048 85.7866 9.81778C85.7874 9.79158 85.7941 9.77882 85.7971 9.79785ZM85.6296 10.1294C85.631 10.133 85.6281 10.1406 85.6226 10.145C85.6166 10.1502 85.6152 10.1466 85.6198 10.1379C85.6235 10.1287 85.6287 10.1251 85.6296 10.1294ZM85.5122 10.3761C85.511 10.3824 85.506 10.392 85.5017 10.396C85.4962 10.4004 85.4965 10.3957 85.5023 10.3845C85.5082 10.3733 85.512 10.3701 85.5122 10.3761Z" fill="#595959"/>
</g>
<defs>
<clipPath id="clip0_1509_57">
<rect width="160" height="52" fill="white"/>
</clipPath>
</defs>
</svg>
