<svg width="160" height="52" viewBox="0 0 160 52" fill="none" xmlns="http://www.w3.org/2000/svg">
<g clip-path="url(#clip0_1463_1076)">
<path d="M51.2664 4.67985L51.3627 4.67985L51.4521 4.64409L61.8129 0.499997L100.352 0.499993L111.332 4.64759L111.417 4.67985L111.509 4.67985L138.868 4.67985L147.5 9.57967L147.5 45.8513L141.433 51.4987L89.3788 51.5L33.4397 51.4987L23.1296 51.4987L12.5 45.7704L12.5 10.5134L23.1316 4.67986L51.2664 4.67985Z" fill="white" stroke="black"/>
<path d="M65.2996 16.4716L65.4496 16.6521H65.6842H96.4211H96.6718L96.8218 16.4511L102.723 8.54297H154.734L157.113 11.0244L159.5 13.5148V44.4215L154.76 48.543H102.472H95.5H66.7359H58.9474H8.12826L0.5 44.3535V13.5742L4.90423 10.4897L8.13886 8.54297H58.7127L65.2996 16.4716Z" fill="#B44242" stroke="black"/>
<path d="M65.2286 8.695L65.2286 7.34827C65.2286 7.10535 65.4256 6.90841 65.6685 6.90841C65.7094 6.90841 65.75 6.91411 65.7893 6.92533L66.7197 7.19109C67.0727 7.29194 67.4512 7.2511 67.7746 7.07726C67.9796 6.96706 68.2087 6.90933 68.4415 6.9092L69.8857 6.90841L72.4786 6.97126L75.0714 6.90841L76.5758 6.68354C76.5565 6.91293 77.4029 7.09941 77.5015 6.55312L77.5015 4.02148L78.295 4.02148L78.5816 6.74542C78.5816 6.74542 97.4863 7.52418 97.8946 7.85281C98.303 8.18143 84.0116 9.41092 78.5816 9.36225L78.295 12.0645L77.5787 12.0645L77.5787 9.64632C77.6596 8.93061 76.7203 9.18504 76.5758 9.36323C75.5743 9.21185 74.5629 9.13575 73.55 9.13555L69.8857 9.13486L68.4426 9.13565C68.2092 9.13578 67.9793 9.07777 67.7739 8.96685C67.451 8.79251 67.0727 8.75134 66.7199 8.85213L65.7893 9.11794C65.75 9.12917 65.7094 9.13486 65.6685 9.13486C65.4256 9.13486 65.2286 8.93793 65.2286 8.695Z" fill="#B44242"/>
</g>
<defs>
<clipPath id="clip0_1463_1076">
<rect width="160" height="52" fill="white"/>
</clipPath>
</defs>
</svg>
