<svg width="160" height="52" viewBox="0 0 160 52" fill="none" xmlns="http://www.w3.org/2000/svg">
<g clip-path="url(#clip0_1463_1037)">
<path d="M51.2664 4.67985L51.3627 4.67985L51.4521 4.64409L61.8129 0.499997L100.352 0.499993L111.332 4.64759L111.417 4.67985L111.509 4.67985L138.868 4.67985L147.5 9.57967L147.5 45.8513L141.433 51.4987L89.3788 51.5L33.4397 51.4987L23.1296 51.4987L12.5 45.7704L12.5 10.5134L23.1316 4.67986L51.2664 4.67985Z" fill="white" stroke="black"/>
<path d="M65.2996 16.4716L65.4496 16.6521H65.6842H96.4211H96.6718L96.8218 16.4511L102.723 8.54297H154.734L157.113 11.0244L159.5 13.5148V44.4215L154.76 48.543H102.472H95.5H66.7359H58.9474H8.12826L0.5 44.3535V13.5742L4.90423 10.4897L8.13886 8.54297H58.7127L65.2996 16.4716Z" fill="#B44242" stroke="black"/>
<path d="M67.3388 7.28253C67.3388 6.84563 66.5 5.64459 66.5 7.89078C66.5 10.137 67.3388 9.09931 67.3388 8.61705C67.3388 8.1348 70 8.54297 73.5 8.61705C77 8.69113 77.4407 9.92767 80 9.92767C83.9009 9.92543 92.5783 10.1882 93.0931 9.92767C93.6078 9.66713 93.6628 6.46716 93.0931 6.17981C92.5234 5.89245 83.9009 6.14726 80 6.14502C77.4407 6.14502 77.0641 7.41478 73.5 7.41478C69.9359 7.41478 67.3388 7.71944 67.3388 7.28253Z" fill="#B44242"/>
</g>
<defs>
<clipPath id="clip0_1463_1037">
<rect width="160" height="52" fill="white"/>
</clipPath>
</defs>
</svg>
