<svg width="160" height="53" viewBox="0 0 160 53" fill="none" xmlns="http://www.w3.org/2000/svg">
<g clip-path="url(#clip0_1509_132)">
<path d="M111.332 5.74915L111.417 5.78141L111.509 5.78141L138.868 5.78141L147.5 10.6812L147.5 46.9528L141.433 52.6003L89.3788 52.6016L33.4397 52.6003L23.1296 52.6003L12.5 46.872L12.5 11.615L23.1316 5.78142L51.2664 5.78141L51.3627 5.78141L51.4521 5.74565L61.8129 1.60156L100.352 1.60156L111.332 5.74915Z" fill="white" stroke="black"/>
<path d="M96.4211 17.363H96.6718L96.8218 17.162L102.723 9.25391H154.734L157.113 11.7354L159.5 14.2258V45.1325L154.76 49.2539H102.472H95.5H66.7359H58.9474H8.12826L0.5 45.0645V14.2851L4.90423 11.2007L8.13886 9.25391H58.7127L65.2996 17.1825L65.4496 17.363H65.6842H96.4211Z" fill="#595959" stroke="black"/>
<path d="M86.5717 9.06311C86.3909 8.86287 84.4432 7.27976 84.095 7.17741C83.9436 7.13343 83.7913 7.1059 83.6339 7.09437C82.9059 7.04107 82.1029 7.26924 81.5968 7.81465C81.5528 7.86218 81.5275 7.88934 81.5275 7.88934C81.5275 7.88934 81.5464 7.85724 81.5793 7.80109C81.7354 7.53795 81.9628 7.30942 82.2063 7.12645C82.3185 7.04215 82.4373 6.96667 82.5614 6.90111C82.5955 6.88313 82.9119 6.71216 82.9332 6.73457C82.9332 6.73453 82.7604 6.55239 82.7604 6.55239C82.4827 6.2746 82.1822 6.03516 81.7729 6.03516C81.2656 6.03516 80.8322 6.34966 80.6558 6.79413C80.5062 6.68291 80.2681 6.61095 80 6.61095C79.7318 6.61095 79.4938 6.68291 79.3441 6.79413C79.1678 6.34964 78.7343 6.03516 78.227 6.03516C77.8178 6.03516 77.5172 6.2746 77.2395 6.55238C77.2395 6.55238 77.0668 6.73451 77.0667 6.73456C77.088 6.71213 77.4044 6.88312 77.4385 6.9011C77.5626 6.96665 77.6814 7.04213 77.7936 7.12644C78.0372 7.30939 78.2645 7.53793 78.4206 7.80108C78.4536 7.85724 78.4724 7.88932 78.4724 7.88932C78.4724 7.88932 78.4472 7.86216 78.4031 7.81463C77.8971 7.26922 77.094 7.04105 76.3661 7.09436C76.2087 7.10589 76.0564 7.13341 75.9049 7.17739C75.5568 7.27974 73.6091 8.86285 73.4283 9.06309C72.9056 9.64186 72.5873 10.4087 72.5873 11.25C72.5873 13.0527 74.0487 14.5142 75.8515 14.5142C77.5006 14.5142 78.8638 13.2911 79.0842 11.7026C79.3412 11.8899 79.6577 12.0004 80 12.0004C80.3423 12.0004 80.6588 11.8899 80.9158 11.7026C81.1362 13.2911 82.4994 14.5142 84.1485 14.5142C85.9513 14.5142 87.4127 13.0527 87.4127 11.25C87.4127 10.4087 87.0944 9.64189 86.5717 9.06311ZM75.779 13.3002C74.6919 13.3002 73.8106 12.4188 73.8106 11.3317C73.8106 10.2445 74.6919 9.36319 75.779 9.36319C76.8662 9.36319 77.7475 10.2445 77.7475 11.3317C77.7475 12.4188 76.8662 13.3002 75.779 13.3002ZM80 11.1467C79.7132 11.1467 79.4808 10.9143 79.4808 10.6275C79.4808 10.3408 79.7132 10.1083 80 10.1083C80.2867 10.1083 80.5192 10.3408 80.5192 10.6275C80.5192 10.9143 80.2867 11.1467 80 11.1467ZM84.2209 13.3002C83.1337 13.3002 82.2524 12.4188 82.2524 11.3317C82.2524 10.2445 83.1337 9.36319 84.2209 9.36319C85.308 9.36319 86.1894 10.2445 86.1894 11.3317C86.1894 12.4188 85.308 13.3002 84.2209 13.3002Z" fill="#595959"/>
</g>
<defs>
<clipPath id="clip0_1509_132">
<rect width="160" height="52" fill="white" transform="translate(0 0.753906)"/>
</clipPath>
</defs>
</svg>
