<svg width="35" height="31" viewBox="0 0 35 31" fill="none" xmlns="http://www.w3.org/2000/svg">
<path d="M9.47549 6.81459C9.85277 6.30738 10.4476 6.0084 11.0798 6.00825L27.5109 6.00433C29.7272 6.0038 31.5215 7.80543 31.5118 10.0217L31.4571 22.6097C31.4548 23.1399 31.3471 23.6643 31.1404 24.1524L30.1348 26.5264C29.3841 28.2988 27.4775 29.2852 25.5971 28.874L20.2102 27.696C19.7293 27.5908 19.2376 27.5754 18.7489 27.6349C16.4288 27.9169 9.23909 28.5725 6.44272 26.2917C5.32296 25.3783 4.83824 24.004 4.6362 23.155C4.51788 22.6578 4.38745 22.1552 4.26407 21.6592C4.04721 20.7875 3.7591 19.0409 3.75526 15.9056C3.91099 14.0453 4.32615 12.8966 4.7788 12.1874C5.45464 11.1285 6.77134 10.45 7.52107 9.44208L9.47549 6.81459Z" fill="#B44242"/>
<path d="M26.0784 7.26155C26.2103 5.52024 27.8946 4.2016 29.6157 4.49216V4.49216C31.0394 4.73249 31.9747 6.00387 31.7857 7.44169L31.011 13.3336C30.8383 14.6477 29.7205 15.7069 28.3821 15.825V15.825C26.7878 15.9657 25.5122 14.7318 25.6311 13.1638L26.0784 7.26155Z" fill="#B44242"/>
<path d="M4.25548 6.81023C4.25548 5.15073 5.41901 3.71854 7.04335 3.37868V3.37868C9.11787 2.94462 11.1002 4.43632 11.2575 6.54991L11.9902 16.3901C12.1715 18.8247 10.0822 20.8177 7.65882 20.5218V20.5218C5.71593 20.2846 4.25549 18.6349 4.25548 16.6776L4.25548 6.81023Z" fill="#B44242"/>
<path d="M25.3308 7.13611L24.7896 13.6997C24.6386 15.5311 26.0008 17.1381 27.8321 17.2891V17.2891C29.6634 17.4401 31.2705 16.0779 31.4215 14.2466L31.9627 7.68294" stroke="white" stroke-width="0.5"/>
<path d="M11.5665 10.7005L11.2109 5.9248C11.0726 4.06634 9.45379 2.67193 7.59533 2.81031V2.81031C5.86643 2.93905 4.51641 4.35697 4.4726 6.09009L4.34246 11.2384" stroke="white" stroke-width="0.5"/>
<rect width="6.66755" height="17.0656" rx="3.33377" transform="matrix(0.999955 -0.00949555 -0.021115 0.999777 11.7717 1.75391)" fill="#B44242"/>
<path d="M18.3382 11.2722L18.4683 5.11408C18.5075 3.25756 17.034 1.76685 15.1771 1.78448V1.78448C13.3203 1.80211 11.7832 3.32141 11.744 5.17794L11.6139 11.3361" stroke="white" stroke-width="0.5"/>
<path d="M31.5561 12.5804L31.9887 7.28607C32.1228 5.64645 30.9364 4.26784 29.2933 4.15389V4.15389C27.5948 4.0361 26.039 5.31032 25.8165 7.00143L25.1455 12.1018" stroke="white" stroke-width="0.5"/>
<path d="M11.2958 7.06496L11.7169 12.7194C11.8809 14.9224 13.7998 16.5753 16.0028 16.4113L16.5935 16.3673C18.7966 16.2033 20.4495 14.2844 20.2855 12.0814L19.8644 6.42694" stroke="white" stroke-width="0.5"/>
<path d="M4.37466 9.54213L4.29506 13.1675C4.28641 13.5615 4.33603 13.9546 4.44231 14.3341L4.93357 16.0882C5.38847 17.7124 6.92557 18.7906 8.60767 18.6654V18.6654C10.5586 18.5201 12.0225 16.8208 11.8772 14.8698L11.1553 5.17413" stroke="white" stroke-width="0.5"/>
<rect width="7.22835" height="16.1678" rx="3.61418" transform="matrix(0.999779 0.0210204 -0.0333553 0.999444 18.5321 1.44531)" fill="#B44242"/>
<path d="M25.4511 10.1114L25.8988 5.56699C26.0944 3.58238 24.6412 1.84655 22.6532 1.68989V1.68989C20.6651 1.53324 18.895 3.0151 18.6994 4.99971L18.2517 9.54408" stroke="white" stroke-width="0.5"/>
<path d="M18.5383 6.41511L17.8371 14.3505C17.6622 16.3304 19.1254 18.0773 21.1053 18.2523V18.2523C23.0825 18.427 24.8278 16.968 25.0065 14.9912L25.6488 7.88361" stroke="white" stroke-width="0.5"/>
<path d="M15.884 8.92752C17.8404 8.21661 20.0101 9.16917 20.8109 11.0906V11.0906C21.6579 13.1229 20.6538 15.4529 18.5948 16.2329L9.64844 19.6219C7.4354 20.4602 5.00324 19.0906 4.57264 16.7637V16.7637C4.25533 15.0489 5.14753 13.3386 6.73543 12.6177L10.7737 10.7844L15.884 8.92752Z" fill="#B44242"/>
<path d="M14.9724 9.09812L14.8915 8.86154L14.8915 8.86154L14.9724 9.09812ZM18.6472 16.1241L18.5664 15.8875L18.5664 15.8875L18.6472 16.1241ZM16.3942 16.8938L16.4751 17.1304L16.4751 17.1304L16.3942 16.8938ZM4.23171 16.4737C4.19793 16.6076 4.27907 16.7435 4.41294 16.7773C4.54681 16.8111 4.68273 16.7299 4.71651 16.5961L4.23171 16.4737ZM5.00624 14.4264L4.76384 14.3652L4.76384 14.3652L5.00624 14.4264ZM7.59135 11.62L7.51052 11.3834L7.59135 11.62ZM15.0532 9.33469L16.1944 8.94481L16.0327 8.47166L14.8915 8.86154L15.0532 9.33469ZM18.5664 15.8875L16.3134 16.6573L16.4751 17.1304L18.728 16.3607L18.5664 15.8875ZM4.71651 16.5961L5.24864 14.4876L4.76384 14.3652L4.23171 16.4737L4.71651 16.5961ZM7.67218 11.8566L15.0532 9.33469L14.8915 8.86154L7.51052 11.3834L7.67218 11.8566ZM5.24864 14.4876C5.5592 13.2569 6.47116 12.2669 7.67218 11.8566L7.51052 11.3834C6.14936 11.8485 5.11581 12.9705 4.76384 14.3652L5.24864 14.4876ZM20.8517 11.2302C21.5067 13.1474 20.4835 15.2325 18.5664 15.8875L18.728 16.3607C20.9065 15.6164 22.0692 13.247 21.3249 11.0685L20.8517 11.2302ZM16.3134 16.6573C14.4356 17.2988 13.4334 19.3412 14.075 21.219L14.5481 21.0573C13.9959 19.4408 14.8586 17.6827 16.4751 17.1304L16.3134 16.6573ZM21.3249 11.0685C20.5806 8.89003 18.2112 7.72737 16.0327 8.47166L16.1944 8.94481C18.1115 8.2898 20.1967 9.31299 20.8517 11.2302L21.3249 11.0685Z" fill="white"/>
</svg>
